{
    "/js/framework-app.js": "/js/framework-app.js",
    "/js/framework-bundle.js": "/js/framework-bundle.js",
    "/css/backend.css": "/css/backend.css",
    "/css/frontend-framework-bundle.css": "/css/frontend-framework-bundle.css",
    "/css/framework-bundle.css": "/css/framework-bundle.css",
    "/css/frontend.css": "/css/frontend.css"
}